210
Lattice="38.28 0.0 0.0 0.0 44.20193660915775 0.0 0.0 0.0 0.0" Properties=species:S:1:pos:R:3 pbc="T T F"
S        1.59500000       0.92087368       1.59500000
S        1.59500000       0.92087368      -1.59500000
W        1.59500000       2.76262104       0.00000000
S        1.59500000       6.44611576       1.59500000
S        1.59500000       6.44611576      -1.59500000
W        1.59500000       8.28786311       0.00000000
S        1.59500000      11.97135783       1.59500000
S        1.59500000      11.97135783      -1.59500000
W        1.59500000      13.81310519       0.00000000
S        1.59500000      17.49659991       1.59500000
S        1.59500000      17.49659991      -1.59500000
W        1.59500000      19.33834727       0.00000000
S        1.59500000      23.02184198       1.59500000
S        1.59500000      23.02184198      -1.59500000
W        1.59500000      24.86358934       0.00000000
W        3.19000000       0.00000000       0.00000000
S        4.78500000       0.92087368       1.59500000
S        4.78500000       0.92087368      -1.59500000
W        4.78500000       2.76262104       0.00000000
S        3.19000000       3.68349472       1.59500000
S        3.19000000       3.68349472      -1.59500000
W        3.19000000       5.52524208       0.00000000
S        4.78500000       6.44611576       1.59500000
S        4.78500000       6.44611576      -1.59500000
W        4.78500000       8.28786311       0.00000000
S        3.19000000       9.20873679       1.59500000
S        3.19000000       9.20873679      -1.59500000
W        3.19000000      11.05048415       0.00000000
S        4.78500000      11.97135783       1.59500000
S        4.78500000      11.97135783      -1.59500000
W        4.78500000      13.81310519       0.00000000
S        3.19000000      14.73397887       1.59500000
S        3.19000000      14.73397887      -1.59500000
W        3.19000000      16.57572623       0.00000000
S        4.78500000      17.49659991       1.59500000
S        4.78500000      17.49659991      -1.59500000
W        4.78500000      19.33834727       0.00000000
S        3.19000000      20.25922095       1.59500000
S        3.19000000      20.25922095      -1.59500000
W        3.19000000      22.10096830       0.00000000
S        4.78500000      23.02184198       1.59500000
S        4.78500000      23.02184198      -1.59500000
W        4.78500000      24.86358934       0.00000000
S        3.19000000      25.78446302       1.59500000
S        3.19000000      25.78446302      -1.59500000
W        6.38000000       0.00000000       0.00000000
S        7.97500000       0.92087368       1.59500000
S        7.97500000       0.92087368      -1.59500000
W        7.97500000       2.76262104       0.00000000
S        6.38000000       3.68349472       1.59500000
S        6.38000000       3.68349472      -1.59500000
W        6.38000000       5.52524208       0.00000000
S        7.97500000       6.44611576       1.59500000
S        7.97500000       6.44611576      -1.59500000
W        7.97500000       8.28786311       0.00000000
S        6.38000000       9.20873679       1.59500000
S        6.38000000       9.20873679      -1.59500000
W        6.38000000      11.05048415       0.00000000
S        7.97500000      11.97135783       1.59500000
S        7.97500000      11.97135783      -1.59500000
W        7.97500000      13.81310519       0.00000000
S        6.38000000      14.73397887       1.59500000
S        6.38000000      14.73397887      -1.59500000
W        6.38000000      16.57572623       0.00000000
S        7.97500000      17.49659991       1.59500000
S        7.97500000      17.49659991      -1.59500000
W        7.97500000      19.33834727       0.00000000
S        6.38000000      20.25922095       1.59500000
S        6.38000000      20.25922095      -1.59500000
W        6.38000000      22.10096830       0.00000000
S        7.97500000      23.02184198       1.59500000
S        7.97500000      23.02184198      -1.59500000
W        7.97500000      24.86358934       0.00000000
S        6.38000000      25.78446302       1.59500000
S        6.38000000      25.78446302      -1.59500000
W        9.57000000       0.00000000       0.00000000
S       11.16500000       0.92087368       1.59500000
S       11.16500000       0.92087368      -1.59500000
W       11.16500000       2.76262104       0.00000000
S        9.57000000       3.68349472       1.59500000
S        9.57000000       3.68349472      -1.59500000
W        9.57000000       5.52524208       0.00000000
S       11.16500000       6.44611576       1.59500000
S       11.16500000       6.44611576      -1.59500000
W       11.16500000       8.28786311       0.00000000
S        9.57000000       9.20873679       1.59500000
S        9.57000000       9.20873679      -1.59500000
W        9.57000000      11.05048415       0.00000000
S       11.16500000      11.97135783       1.59500000
S       11.16500000      11.97135783      -1.59500000
W       11.16500000      13.81310519       0.00000000
S        9.57000000      14.73397887       1.59500000
S        9.57000000      14.73397887      -1.59500000
W        9.57000000      16.57572623       0.00000000
S       11.16500000      17.49659991       1.59500000
S       11.16500000      17.49659991      -1.59500000
W       11.16500000      19.33834727       0.00000000
S        9.57000000      20.25922095       1.59500000
S        9.57000000      20.25922095      -1.59500000
W        9.57000000      22.10096830       0.00000000
S       11.16500000      23.02184198       1.59500000
S       11.16500000      23.02184198      -1.59500000
W       11.16500000      24.86358934       0.00000000
S        9.57000000      25.78446302       1.59500000
S        9.57000000      25.78446302      -1.59500000
W       12.76000000       0.00000000       0.00000000
S       14.35500000       0.92087368       1.59500000
S       14.35500000       0.92087368      -1.59500000
W       14.35500000       2.76262104       0.00000000
S       12.76000000       3.68349472       1.59500000
S       12.76000000       3.68349472      -1.59500000
W       12.76000000       5.52524208       0.00000000
S       14.35500000       6.44611576       1.59500000
S       14.35500000       6.44611576      -1.59500000
W       14.35500000       8.28786311       0.00000000
S       12.76000000       9.20873679       1.59500000
S       12.76000000       9.20873679      -1.59500000
W       12.76000000      11.05048415       0.00000000
S       14.35500000      11.97135783       1.59500000
S       14.35500000      11.97135783      -1.59500000
W       14.35500000      13.81310519       0.00000000
S       12.76000000      14.73397887       1.59500000
S       12.76000000      14.73397887      -1.59500000
W       12.76000000      16.57572623       0.00000000
S       14.35500000      17.49659991       1.59500000
S       14.35500000      17.49659991      -1.59500000
W       14.35500000      19.33834727       0.00000000
S       12.76000000      20.25922095       1.59500000
S       12.76000000      20.25922095      -1.59500000
W       12.76000000      22.10096830       0.00000000
S       14.35500000      23.02184198       1.59500000
S       14.35500000      23.02184198      -1.59500000
W       14.35500000      24.86358934       0.00000000
S       12.76000000      25.78446302       1.59500000
S       12.76000000      25.78446302      -1.59500000
W       15.95000000       0.00000000       0.00000000
S       17.54500000       0.92087368       1.59500000
S       17.54500000       0.92087368      -1.59500000
W       17.54500000       2.76262104       0.00000000
S       15.95000000       3.68349472       1.59500000
S       15.95000000       3.68349472      -1.59500000
W       15.95000000       5.52524208       0.00000000
S       17.54500000       6.44611576       1.59500000
S       17.54500000       6.44611576      -1.59500000
W       17.54500000       8.28786311       0.00000000
S       15.95000000       9.20873679       1.59500000
S       15.95000000       9.20873679      -1.59500000
W       15.95000000      11.05048415       0.00000000
S       17.54500000      11.97135783       1.59500000
S       17.54500000      11.97135783      -1.59500000
W       17.54500000      13.81310519       0.00000000
S       15.95000000      14.73397887       1.59500000
S       15.95000000      14.73397887      -1.59500000
W       15.95000000      16.57572623       0.00000000
S       17.54500000      17.49659991       1.59500000
S       17.54500000      17.49659991      -1.59500000
W       17.54500000      19.33834727       0.00000000
S       15.95000000      20.25922095       1.59500000
S       15.95000000      20.25922095      -1.59500000
W       15.95000000      22.10096830       0.00000000
S       17.54500000      23.02184198       1.59500000
S       17.54500000      23.02184198      -1.59500000
W       17.54500000      24.86358934       0.00000000
S       15.95000000      25.78446302       1.59500000
S       15.95000000      25.78446302      -1.59500000
W       19.14000000       0.00000000       0.00000000
S       20.73500000       0.92087368       1.59500000
S       20.73500000       0.92087368      -1.59500000
W       20.73500000       2.76262104       0.00000000
S       19.14000000       3.68349472       1.59500000
S       19.14000000       3.68349472      -1.59500000
W       19.14000000       5.52524208       0.00000000
S       20.73500000       6.44611576       1.59500000
S       20.73500000       6.44611576      -1.59500000
W       20.73500000       8.28786311       0.00000000
S       19.14000000       9.20873679       1.59500000
S       19.14000000       9.20873679      -1.59500000
W       19.14000000      11.05048415       0.00000000
S       20.73500000      11.97135783       1.59500000
S       20.73500000      11.97135783      -1.59500000
W       20.73500000      13.81310519       0.00000000
S       19.14000000      14.73397887       1.59500000
S       19.14000000      14.73397887      -1.59500000
W       19.14000000      16.57572623       0.00000000
S       20.73500000      17.49659991       1.59500000
S       20.73500000      17.49659991      -1.59500000
W       20.73500000      19.33834727       0.00000000
S       19.14000000      20.25922095       1.59500000
S       19.14000000      20.25922095      -1.59500000
W       19.14000000      22.10096830       0.00000000
S       20.73500000      23.02184198       1.59500000
S       20.73500000      23.02184198      -1.59500000
W       20.73500000      24.86358934       0.00000000
S       19.14000000      25.78446302       1.59500000
S       19.14000000      25.78446302      -1.59500000
W       22.33000000       0.00000000       0.00000000
S       22.33000000       3.68349472       1.59500000
S       22.33000000       3.68349472      -1.59500000
W       22.33000000       5.52524208       0.00000000
S       22.33000000       9.20873679       1.59500000
S       22.33000000       9.20873679      -1.59500000
W       22.33000000      11.05048415       0.00000000
S       22.33000000      14.73397887       1.59500000
S       22.33000000      14.73397887      -1.59500000
W       22.33000000      16.57572623       0.00000000
S       22.33000000      20.25922095       1.59500000
S       22.33000000      20.25922095      -1.59500000
W       22.33000000      22.10096830       0.00000000
S       22.33000000      25.78446302       1.59500000
S       22.33000000      25.78446302      -1.59500000
